Data Literacy and Mining
…
``` r
find_outliers(glss_na)
```

```
## Outliers in column MPI_Score :
## # A tibble: 65 × 1
##    MPI_Score
##        <dbl>
##  1     0.747
##  2     0.953
##  3     0.747
##  4     0.953
##  5     0.730
##  6     0.730
##  7     0.747
##  8     0.730
##  9     0.730
## 10     0.777
## # ℹ 55 more rows
## 
## Outliers in column Age_hd :
## # A tibble: 27 × 1
##    Age_hd
##     <dbl>
##  1     89
##  2     99
##  3     95
##  4     86
##  5     95
##  6     88
##  7     94
##  8     86
##  9     88
## 10     88
## # ℹ 17 more rows
## 
## Outliers in column food_exp :
## # A tibble: 361 × 1
##    food_exp
##       <dbl>
##  1     13.9
##  2     15.1
##  3     13.7
##  4     20.9
##  5     20.2
##  6     13.7
##  7     16.3
##  8     20.9
##  9     19.1
## 10     13.0
## # ℹ 351 more rows
## 
## Outliers in column percapita_nonfood :
## # A tibble: 553 × 1
##    percapita_nonfood
##                <dbl>
##  1             20.2 
##  2             11.5 
##  3              5.59
##  4              8.55
##  5             11.4 
##  6             11.9 
##  7              9.74
##  8              7.77
##  9              5.61
## 10              5.85
## # ℹ 543 more rows
## 
## Outliers in column percapita_food :
## # A tibble: 429 × 1
##    percapita_food
##             <dbl>
##  1          13.9 
##  2           5.80
##  3           6.08
##  4           6.80
##  5          10.7 
##  6           5.47
##  7           7.41
##  8           6.77
##  9           5.83
## 10           5.58
## # ℹ 419 more rows
## 
## Outliers in column real_hhexp :
## # A tibble: 451 × 1
##    real_hhexp
##         <dbl>
##  1       35.8
##  2       32.1
##  3       28.9
##  4       50.9
##  5       61.6
##  6       33.5
##  7       43.7
##  8       58.5
##  9       31.0
## 10       33.5
## # ℹ 441 more rows
## 
## Outliers in column welfare :
## # A tibble: 461 × 1
##    welfare
##      <dbl>
##  1    35.8
##  2    16.0
##  3    15.1
##  4    22.1
##  5    14.7
##  6    18.9
##  7    13.4
##  8    28.5
##  9    21.2
## 10    14.2
## # ℹ 451 more rows
## 
## Outliers in column hhsize :
## # A tibble: 77 × 1
##    hhsize
##     <dbl>
##  1     13
##  2     14
##  3     12
##  4     12
##  5     14
##  6     15
##  7     12
##  8     18
##  9     16
## 10     13
## # ℹ 67 more rows
## 
## Outliers in column gross_income :
## # A tibble: 828 × 1
##    gross_income
##           <dbl>
##  1         67.2
##  2        108. 
##  3        112. 
##  4         60.5
##  5       2797. 
##  6        340. 
##  7         96.6
##  8        130. 
##  9         59.1
## 10         56.7
## # ℹ 818 more rows
## 
## Outliers in column net_income :
## # A tibble: 1,075 × 1
##    net_income
##         <dbl>
##  1       73.4
##  2      -46.1
##  3      -26.3
##  4     -332. 
##  5       87.8
##  6     -506. 
##  7      -23.1
##  8       46.4
##  9       73.5
## 10      114. 
## # ℹ 1,065 more rows
## 
## Outliers in column log_foodexp :
## # A tibble: 139 × 1
##    log_foodexp
##          <dbl>
##  1      -1.05 
##  2      -0.266
##  3      -0.223
##  4      -1.59 
##  5      -0.712
##  6      -0.315
##  7       3.51 
##  8      -0.420
##  9      -0.513
## 10      -1.05 
## # ℹ 129 more rows
## 
## Outliers in column log_pcnonfood :
## # A tibble: 120 × 1
##    log_pcnonfood
##            <dbl>
##  1          3.00
##  2       -Inf   
##  3         -2.58
##  4         -2.39
##  5         -2.41
##  6       -Inf   
##  7         -2.34
##  8       -Inf   
##  9          3.95
## 10         -2.76
## # ℹ 110 more rows
## 
## Outliers in column log_realhhexp :
## # A tibble: 125 × 1
##    log_realhhexp
##            <dbl>
##  1        4.12  
##  2        4.27  
##  3        0.333 
##  4       -0.0657
##  5       -0.281 
##  6        0.104 
##  7        0.0216
##  8       -0.532 
##  9        4.71  
## 10        0.0399
## # ℹ 115 more rows
## 
## Outliers in column log_welfare :
## # A tibble: 103 × 1
##    log_welfare
##          <dbl>
##  1       3.58 
##  2      -0.859
##  3      -1.15 
##  4      -0.914
##  5       4.14 
##  6      -0.701
##  7       3.48 
##  8       3.67 
##  9       3.41 
## 10       3.60 
## # ℹ 93 more rows
## 
## Outliers in column log_grossincome :
## # A tibble: 178 × 1
##    log_grossincome
##              <dbl>
##  1         -Inf   
##  2         -Inf   
##  3            7.94
##  4         -Inf   
##  5            7.65
##  6         -Inf   
##  7         -Inf   
##  8            6.70
##  9         -Inf   
## 10            6.74
## # ℹ 168 more rows
```
…
